TypeRacingGame
…
writeLines(train.text, 'train.text.txt')

Will return when I finish typing out my data. Tune in the headphones…

I’m back. I just typed out 1000 words that were from the data set above. I will combine the data set with 1000 similarly matched words also and then use those words to measure the distance using the sequence alignment algorithm.

train.user = scan('user_text.txt', 'char', sep = '\n')

(my_data = tibble(
  train.text,
  train.user,
  match = TRUE
))

# A tibble: 1,000 × 3
   train.text train.user match
   <chr>      <chr>      <lgl>
 1 great      great      TRUE 
 2 orders,    orders.    TRUE 
 3 predica's  predica's  TRUE 
 4 named      named      TRUE 
 5 eye.       eye.       TRUE 
 6 have       have       TRUE 
 7 said       said       TRUE 
 8 and        and        TRUE 
 9 out        out        TRUE 
10 in         in         TRUE 
# … with 990 more rows
…
 [1] "the"     "of"      "the"     "of"      "pines."  "he"      "a"      
 [8] "was"     "lighted" "removed"

# Put it into same format and row bind.
(word_data = matrix(train.text.mis, ncol = 2) %>% 
  as.data.frame() %>% 
  cbind(F) %>% 
  as_tibble() %>% 
  rename('train.text' = V1, 'train.user' = V2, 'match' = `F`) %>% 
  rbind(my_data, .) %>% 
  mutate(match = case_when(match ~ match,
                           train.text == train.user ~ TRUE,
                           TRUE ~ match)))

# A tibble: 2,000 × 3
   train.text train.user match
   <chr>      <chr>      <lgl>
 1 great      great      TRUE 
 2 orders,    orders.    TRUE 
 3 predica's  predica's  TRUE 
 4 named      named      TRUE 
 5 eye.       eye.       TRUE 
 6 have       have       TRUE 
 7 said       said       TRUE 
 8 and        and        TRUE 
 9 out        out        TRUE 
10 in         in         TRUE 
# … with 1,990 more rows
…
 [1] "in"     "a"      "the"    "gate"   "water," "The"    "were"   "which" 
 [9] "feding" "more"  

writeLines(test.text, 'test.text.txt')

test.user = scan('user_text_test.txt', 'char', sep = '\n')

(my_data.test = tibble(
  test.text,
  test.user,
  match = TRUE
))

# A tibble: 1,000 × 3
   test.text test.user match
   <chr>     <chr>     <lgl>
 1 in        in        TRUE 
 2 a         a         TRUE 
 3 the       the       TRUE 
 4 gate      gate      TRUE 
 5 water,    water,    TRUE 
 6 The       The       TRUE 
 7 were      were      TRUE 
 8 which     which     TRUE 
 9 feding    feding    TRUE 
10 more      more      TRUE 
# … with 990 more rows
…
 [1] "to"      "-"       "the"     "king"    "The"     "can"     "televey"
 [8] "years,"  "the"     "the"    

# Put it into same format and row bind.
(word_data.test = matrix(test.text.mis, ncol = 2) %>% 
  as.data.frame() %>% 
  cbind(F) %>% 
  as_tibble() %>% 
  rename('test.text' = V1, 'test.user' = V2, 'match' = `F`) %>% 
  rbind(my_data.test, .) %>% 
  mutate(match = case_when(match ~ match,
                           test.text == test.user ~ TRUE,
                           TRUE ~ match)))

# A tibble: 2,000 × 3
   test.text test.user match
   <chr>     <chr>     <lgl>
 1 in        in        TRUE 
 2 a         a         TRUE 
 3 the       the       TRUE 
 4 gate      gate      TRUE 
 5 water,    water,    TRUE 
 6 The       The       TRUE 
 7 were      were      TRUE 
 8 which     which     TRUE 
 9 feding    feding    TRUE 
10 more      more      TRUE 
# … with 1,990 more rows
Before building the ROC, we’ll need to code up the function that is outlined above.

prob_w_w <- function(x, y){
  d = sequence_align(x, y, 1, 1, T)
  s = nchar(x)
  plogis(2 - 2.15 * d + 0.15 * s)
}

probs = map2_dbl(word_data.test$test.text, word_data.test$test.user, prob_w_w)

(word_data.test2 = word_data.test %>% 
  cbind(probs) %>% 
  as_tibble())

# A tibble: 2,000 × 4
   test.text test.user match probs
   <chr>     <chr>     <lgl> <dbl>
 1 in        in        TRUE  0.909
 2 a         a         TRUE  0.896
 3 the       the       TRUE  0.921
 4 gate      gate      TRUE  0.931
 5 water,    water,    TRUE  0.948
 6 The       The       TRUE  0.921
 7 were      were      TRUE  0.931
 8 which     which     TRUE  0.940
 9 feding    feding    TRUE  0.948
10 more      more      TRUE  0.931
# … with 1,990 more rows
…
